^C:\BITBUCKET\AISD\SORTOWANIE_BABELKOWE\PCH.CPP
C:\BITBUCKET\AISD\SORTOWANIE_BABELKOWE\X64\DEBUG\SORTOWANIE_BABELKOWE.PCH
C:\BITBUCKET\AISD\SORTOWANIE_BABELKOWE\X64\DEBUG\VC141.PDB
C:\BITBUCKET\AISD\SORTOWANIE_BABELKOWE\X64\DEBUG\VC141.IDB
C:\BITBUCKET\AISD\SORTOWANIE_BABELKOWE\X64\DEBUG\PCH.OBJ
^C:\BITBUCKET\AISD\SORTOWANIE_BABELKOWE\SORTOWANIE_BABELKOWE.CPP
C:\BITBUCKET\AISD\SORTOWANIE_BABELKOWE\X64\DEBUG\VC141.PDB
C:\BITBUCKET\AISD\SORTOWANIE_BABELKOWE\X64\DEBUG\VC141.IDB
C:\BITBUCKET\AISD\SORTOWANIE_BABELKOWE\X64\DEBUG\SORTOWANIE_BABELKOWE.OBJ
